{
  "productName": "다크그레이 붙박이장",
  "productCode": "IRO16BB012",
  "brandName": "한국붙박이",
  "brandCode": "iroche",
  "model": {
    "format": ".gltf",
    "scale": 1
  },
  "shadow": {
    "external": false
  },
  "camera": {
    "fov": 45,
    "near": 0.25,
    "far": 100,
    "position": {
      "x": -5, 
      "y": 3,
      "z": 10
    }
  },
  "control": {
    "max": 15,
    "min": 2,
    "target": {
      "x": 0,
      "y": 0.7,
      "z": 0
    }
  },
  "lights": {
    "ambientIntensity": 1,
    "frontLightIntensity": 0.5,
    "rightLightIntensity": 0.5,
    "backLightIntensity": 0.5
  }
}