{
  "productName": "철제 청소도구함 850",
  "productCode": "IRO15DO044",
  "brandName": "서울강철",
  "brandCode": "iroche",
  "model": {
    "format": ".gltf",
    "scale": 1
  },
  "shadow": {
    "external": false
  },
  "camera": {
    "fov": 45,
    "near": 0.25,
    "far": 100,
    "position": {
      "x": -2, 
      "y": 2,
      "z": 5
    }
  },
  "control": {
    "max": 15,
    "min": 2,
    "target": {
      "x": 0,
      "y": 0.7,
      "z": 0
    }
  },
  "lights": {
    "ambientIntensity": 1,
    "frontLightIntensity": 0.5,
    "rightLightIntensity": 0.5,
    "backLightIntensity": 0.5
  }
}