{
  "asset": {
    "version": "2.0",
    "generator": "babylon.js glTF exporter for 3dsmax 2017 v20191203.3"
  },
  "scene": 0,
  "scenes": [{ "nodes": [0, 1], "extensions": {} }],
  "nodes": [
    {
      "mesh": 0,
      "translation": [0.0, 0.0, 0.0],
      "rotation": [0.0, 0.0, 0.0, 1.0],
      "scale": [1.0, 1.0, 1.0],
      "name": "Mirror"
    },
    {
      "translation": [0.0, 0.0, 0.0],
      "rotation": [0.0, 0.0, 0.0, 1.0],
      "scale": [1.0, 1.0, 1.0],
      "name": "Default light"
    }
  ],
  "meshes": [
    {
      "primitives": [
        {
          "attributes": { "POSITION": 1, "NORMAL": 2, "TEXCOORD_0": 3 },
          "indices": 0,
          "mode": 4,
          "material": 0
        },
        {
          "attributes": { "POSITION": 5, "NORMAL": 6, "TEXCOORD_0": 7 },
          "indices": 4,
          "mode": 4,
          "material": 1
        },
        {
          "attributes": { "POSITION": 9, "NORMAL": 10, "TEXCOORD_0": 11 },
          "indices": 8,
          "mode": 4,
          "material": 2
        },
        {
          "attributes": { "POSITION": 13, "NORMAL": 14, "TEXCOORD_0": 15 },
          "indices": 12,
          "mode": 4,
          "material": 3
        },
        {
          "attributes": { "POSITION": 17, "NORMAL": 18, "TEXCOORD_0": 19 },
          "indices": 16,
          "mode": 4,
          "material": 4
        }
      ],
      "name": "Mirror"
    }
  ],
  "accessors": [
    {
      "bufferView": 0,
      "componentType": 5123,
      "count": 1866,
      "type": "SCALAR",
      "name": "accessorIndices"
    },
    {
      "bufferView": 1,
      "componentType": 5126,
      "count": 1866,
      "max": [0.400000036, 0.8, 0.000100016594],
      "min": [-0.4, -0.00149996951, -0.17809993],
      "type": "VEC3",
      "name": "accessorPositions"
    },
    {
      "bufferView": 1,
      "byteOffset": 22392,
      "componentType": 5126,
      "count": 1866,
      "type": "VEC3",
      "name": "accessorNormals"
    },
    {
      "bufferView": 2,
      "componentType": 5126,
      "count": 1866,
      "type": "VEC2",
      "name": "accessorUVs"
    },
    {
      "bufferView": 0,
      "byteOffset": 3732,
      "componentType": 5123,
      "count": 72,
      "type": "SCALAR",
      "name": "accessorIndices"
    },
    {
      "bufferView": 1,
      "byteOffset": 44784,
      "componentType": 5126,
      "count": 72,
      "max": [0.3749998, 0.741000056, -0.0520999171],
      "min": [-0.375, 0.0590000041, -0.154099926],
      "type": "VEC3",
      "name": "accessorPositions"
    },
    {
      "bufferView": 1,
      "byteOffset": 45648,
      "componentType": 5126,
      "count": 72,
      "type": "VEC3",
      "name": "accessorNormals"
    },
    {
      "bufferView": 2,
      "byteOffset": 14928,
      "componentType": 5126,
      "count": 72,
      "type": "VEC2",
      "name": "accessorUVs"
    },
    {
      "bufferView": 0,
      "byteOffset": 3876,
      "componentType": 5123,
      "count": 672,
      "type": "SCALAR",
      "name": "accessorIndices"
    },
    {
      "bufferView": 1,
      "byteOffset": 46512,
      "componentType": 5126,
      "count": 672,
      "max": [0.298500031, 0.120000005, 0.000100001693],
      "min": [0.278500021, 0.1, 0.0],
      "type": "VEC3",
      "name": "accessorPositions"
    },
    {
      "bufferView": 1,
      "byteOffset": 54576,
      "componentType": 5126,
      "count": 672,
      "type": "VEC3",
      "name": "accessorNormals"
    },
    {
      "bufferView": 2,
      "byteOffset": 15504,
      "componentType": 5126,
      "count": 672,
      "type": "VEC2",
      "name": "accessorUVs"
    },
    {
      "bufferView": 0,
      "byteOffset": 5220,
      "componentType": 5123,
      "count": 2400,
      "type": "SCALAR",
      "name": "accessorIndices"
    },
    {
      "bufferView": 1,
      "byteOffset": 62640,
      "componentType": 5126,
      "count": 2400,
      "max": [0.364500016, 0.763, 0.000100016594],
      "min": [-0.364500016, 0.03400003, 1.49011612e-8],
      "type": "VEC3",
      "name": "accessorPositions"
    },
    {
      "bufferView": 1,
      "byteOffset": 91440,
      "componentType": 5126,
      "count": 2400,
      "type": "VEC3",
      "name": "accessorNormals"
    },
    {
      "bufferView": 2,
      "byteOffset": 20880,
      "componentType": 5126,
      "count": 2400,
      "type": "VEC2",
      "name": "accessorUVs"
    },
    {
      "bufferView": 0,
      "byteOffset": 10020,
      "componentType": 5123,
      "count": 852,
      "type": "SCALAR",
      "name": "accessorIndices"
    },
    {
      "bufferView": 1,
      "byteOffset": 120240,
      "componentType": 5126,
      "count": 852,
      "max": [0.398500025, 0.797000051, 1.49011612e-8],
      "min": [-0.398500025, 3.051758e-8, -0.00299998373],
      "type": "VEC3",
      "name": "accessorPositions"
    },
    {
      "bufferView": 1,
      "byteOffset": 130464,
      "componentType": 5126,
      "count": 852,
      "type": "VEC3",
      "name": "accessorNormals"
    },
    {
      "bufferView": 2,
      "byteOffset": 40080,
      "componentType": 5126,
      "count": 852,
      "type": "VEC2",
      "name": "accessorUVs"
    }
  ],
  "bufferViews": [
    { "buffer": 0, "byteLength": 11724, "name": "bufferViewScalar" },
    {
      "buffer": 0,
      "byteOffset": 11724,
      "byteLength": 140688,
      "byteStride": 12,
      "name": "bufferViewFloatVec3"
    },
    {
      "buffer": 0,
      "byteOffset": 152412,
      "byteLength": 46896,
      "byteStride": 8,
      "name": "bufferViewFloatVec2"
    }
  ],
  "buffers": [{ "uri": "no-shadow.bin", "byteLength": 199308 }],
  "materials": [
    {
      "pbrMetallicRoughness": {
        "baseColorFactor": [0.0196078438, 0.0196078438, 0.0196078438, 1.0],
        "metallicFactor": 0.0,
        "roughnessFactor": 0.450053632
      },
      "emissiveFactor": [0.0, 0.0, 0.0],
      "alphaMode": "OPAQUE",
      "name": "03_01black"
    },
    {
      "pbrMetallicRoughness": {
        "baseColorFactor": [1.0, 1.0, 1.0, 1.0],
        "baseColorTexture": { "index": 0, "texCoord": 0 },
        "metallicFactor": 0.0,
        "roughnessFactor": 0.450053632
      },
      "emissiveFactor": [0.0, 0.0, 0.0],
      "alphaMode": "OPAQUE",
      "name": "03_01wd"
    },
    {
      "pbrMetallicRoughness": {
        "baseColorFactor": [0.384313762, 0.3901961, 0.498039246, 1.0],
        "metallicFactor": 0.0,
        "roughnessFactor": 0.450053632
      },
      "emissiveFactor": [0.7686275, 0.7803922, 0.9960785],
      "alphaMode": "OPAQUE",
      "name": "03_01led"
    },
    {
      "pbrMetallicRoughness": {
        "baseColorFactor": [0.5, 0.5, 0.5, 1.0],
        "metallicFactor": 0.0,
        "roughnessFactor": 0.450053632
      },
      "emissiveFactor": [1.0, 1.0, 1.0],
      "alphaMode": "OPAQUE",
      "name": "03_01led2"
    },
    {
      "pbrMetallicRoughness": {
        "baseColorFactor": [0.928, 0.95, 0.962, 1.0],
        "metallicFactor": 1.0,
        "roughnessFactor": 0.0
      },
      "emissiveFactor": [0.0, 0.0, 0.0],
      "alphaMode": "OPAQUE",
      "name": "03_01M1.0"
    }
  ],
  "textures": [{ "sampler": 0, "source": 0, "name": "03_01wd_baseColor.png" }],
  "images": [{ "uri": "./texture/03_01wd_baseColor.png" }],
  "samplers": [
    { "magFilter": 9729, "minFilter": 9987, "wrapS": 10497, "wrapT": 10497 }
  ]
}
