{
  "asset": {
    "version": "2.0",
    "generator": "babylon.js glTF exporter for 3dsmax 2017 v20191203.3"
  },
  "scene": 0,
  "scenes": [{ "nodes": [0, 1], "extensions": {} }],
  "nodes": [
    {
      "mesh": 0,
      "translation": [0.0, 0.0, 0.0],
      "rotation": [0.0, 0.0, 0.0, 1.0],
      "scale": [0.001, 0.001, 0.001],
      "name": "Desk"
    },
    {
      "translation": [0.0, 0.0, 0.0],
      "rotation": [0.0, 0.0, 0.0, 1.0],
      "scale": [1.0, 1.0, 1.0],
      "name": "Default light"
    }
  ],
  "meshes": [
    {
      "primitives": [
        {
          "attributes": { "POSITION": 1, "NORMAL": 2, "TEXCOORD_0": 3 },
          "indices": 0,
          "mode": 4,
          "material": 0
        },
        {
          "attributes": { "POSITION": 5, "NORMAL": 6, "TEXCOORD_0": 7 },
          "indices": 4,
          "mode": 4,
          "material": 1
        },
        {
          "attributes": { "POSITION": 9, "NORMAL": 10, "TEXCOORD_0": 11 },
          "indices": 8,
          "mode": 4,
          "material": 2
        },
        {
          "attributes": { "POSITION": 13, "NORMAL": 14, "TEXCOORD_0": 15 },
          "indices": 12,
          "mode": 4,
          "material": 3
        },
        {
          "attributes": { "POSITION": 17, "NORMAL": 18, "TEXCOORD_0": 19 },
          "indices": 16,
          "mode": 4,
          "material": 4
        },
        {
          "attributes": { "POSITION": 21, "NORMAL": 22, "TEXCOORD_0": 23 },
          "indices": 20,
          "mode": 4,
          "material": 5
        },
        {
          "attributes": { "POSITION": 25, "NORMAL": 26, "TEXCOORD_0": 27 },
          "indices": 24,
          "mode": 4,
          "material": 6
        },
        {
          "attributes": { "POSITION": 29, "NORMAL": 30, "TEXCOORD_0": 31 },
          "indices": 28,
          "mode": 4,
          "material": 7
        }
      ],
      "name": "Desk"
    }
  ],
  "accessors": [
    {
      "bufferView": 0,
      "componentType": 5125,
      "count": 6,
      "type": "SCALAR",
      "name": "accessorIndices"
    },
    {
      "bufferView": 1,
      "componentType": 5126,
      "count": 6,
      "max": [748.0, 730.0, 256.255371],
      "min": [-748.0, 730.0, -239.744629],
      "type": "VEC3",
      "name": "accessorPositions"
    },
    {
      "bufferView": 1,
      "byteOffset": 72,
      "componentType": 5126,
      "count": 6,
      "type": "VEC3",
      "name": "accessorNormals"
    },
    {
      "bufferView": 2,
      "componentType": 5126,
      "count": 6,
      "type": "VEC2",
      "name": "accessorUVs"
    },
    {
      "bufferView": 0,
      "byteOffset": 24,
      "componentType": 5125,
      "count": 384,
      "type": "SCALAR",
      "name": "accessorIndices"
    },
    {
      "bufferView": 1,
      "byteOffset": 144,
      "componentType": 5126,
      "count": 384,
      "max": [750.0, 730.0, 258.255371],
      "min": [-750.0, 702.0, -241.744629],
      "type": "VEC3",
      "name": "accessorPositions"
    },
    {
      "bufferView": 1,
      "byteOffset": 4752,
      "componentType": 5126,
      "count": 384,
      "type": "VEC3",
      "name": "accessorNormals"
    },
    {
      "bufferView": 2,
      "byteOffset": 48,
      "componentType": 5126,
      "count": 384,
      "type": "VEC2",
      "name": "accessorUVs"
    },
    {
      "bufferView": 0,
      "byteOffset": 1560,
      "componentType": 5125,
      "count": 120,
      "type": "SCALAR",
      "name": "accessorIndices"
    },
    {
      "bufferView": 1,
      "byteOffset": 9360,
      "componentType": 5126,
      "count": 120,
      "max": [750.0, 728.0, 258.255371],
      "min": [-750.0, 704.0, -241.744629],
      "type": "VEC3",
      "name": "accessorPositions"
    },
    {
      "bufferView": 1,
      "byteOffset": 10800,
      "componentType": 5126,
      "count": 120,
      "type": "VEC3",
      "name": "accessorNormals"
    },
    {
      "bufferView": 2,
      "byteOffset": 3120,
      "componentType": 5126,
      "count": 120,
      "type": "VEC2",
      "name": "accessorUVs"
    },
    {
      "bufferView": 0,
      "byteOffset": 2040,
      "componentType": 5125,
      "count": 6,
      "type": "SCALAR",
      "name": "accessorIndices"
    },
    {
      "bufferView": 1,
      "byteOffset": 12240,
      "componentType": 5126,
      "count": 6,
      "max": [748.0, 702.0, 256.255371],
      "min": [-748.0, 702.0, -239.744629],
      "type": "VEC3",
      "name": "accessorPositions"
    },
    {
      "bufferView": 1,
      "byteOffset": 12312,
      "componentType": 5126,
      "count": 6,
      "type": "VEC3",
      "name": "accessorNormals"
    },
    {
      "bufferView": 2,
      "byteOffset": 4080,
      "componentType": 5126,
      "count": 6,
      "type": "VEC2",
      "name": "accessorUVs"
    },
    {
      "bufferView": 0,
      "byteOffset": 2064,
      "componentType": 5125,
      "count": 31308,
      "type": "SCALAR",
      "name": "accessorIndices"
    },
    {
      "bufferView": 1,
      "byteOffset": 12384,
      "componentType": 5126,
      "count": 31308,
      "max": [718.5, 702.0001, 216.999329],
      "min": [-718.499939, 70.44995, -223.000519],
      "type": "VEC3",
      "name": "accessorPositions"
    },
    {
      "bufferView": 1,
      "byteOffset": 388080,
      "componentType": 5126,
      "count": 31308,
      "type": "VEC3",
      "name": "accessorNormals"
    },
    {
      "bufferView": 2,
      "byteOffset": 4128,
      "componentType": 5126,
      "count": 31308,
      "type": "VEC2",
      "name": "accessorUVs"
    },
    {
      "bufferView": 0,
      "byteOffset": 127296,
      "componentType": 5125,
      "count": 11592,
      "type": "SCALAR",
      "name": "accessorIndices"
    },
    {
      "bufferView": 1,
      "byteOffset": 763776,
      "componentType": 5126,
      "count": 11592,
      "max": [727.7774, 83.0029755, 211.299561],
      "min": [-727.7774, -0.0001373291, -258.255463],
      "type": "VEC3",
      "name": "accessorPositions"
    },
    {
      "bufferView": 1,
      "byteOffset": 902880,
      "componentType": 5126,
      "count": 11592,
      "type": "VEC3",
      "name": "accessorNormals"
    },
    {
      "bufferView": 2,
      "byteOffset": 254592,
      "componentType": 5126,
      "count": 11592,
      "type": "VEC2",
      "name": "accessorUVs"
    },
    {
      "bufferView": 0,
      "byteOffset": 173664,
      "componentType": 5125,
      "count": 22224,
      "type": "SCALAR",
      "name": "accessorIndices"
    },
    {
      "bufferView": 1,
      "byteOffset": 1041984,
      "componentType": 5126,
      "count": 22224,
      "max": [726.7774, 686.513367, 207.493347],
      "min": [-726.7774, -0.000118255615, -257.250519],
      "type": "VEC3",
      "name": "accessorPositions"
    },
    {
      "bufferView": 1,
      "byteOffset": 1308672,
      "componentType": 5126,
      "count": 22224,
      "type": "VEC3",
      "name": "accessorNormals"
    },
    {
      "bufferView": 2,
      "byteOffset": 347328,
      "componentType": 5126,
      "count": 22224,
      "type": "VEC2",
      "name": "accessorUVs"
    },
    {
      "bufferView": 0,
      "byteOffset": 262560,
      "componentType": 5125,
      "count": 204,
      "type": "SCALAR",
      "name": "accessorIndices"
    },
    {
      "bufferView": 1,
      "byteOffset": 1575360,
      "componentType": 5126,
      "count": 204,
      "max": [591.9519, 612.5741, 87.43517],
      "min": [-591.9519, 611.5741, -74.93616],
      "type": "VEC3",
      "name": "accessorPositions"
    },
    {
      "bufferView": 1,
      "byteOffset": 1577808,
      "componentType": 5126,
      "count": 204,
      "type": "VEC3",
      "name": "accessorNormals"
    },
    {
      "bufferView": 2,
      "byteOffset": 525120,
      "componentType": 5126,
      "count": 204,
      "type": "VEC2",
      "name": "accessorUVs"
    }
  ],
  "bufferViews": [
    { "buffer": 0, "byteLength": 263376, "name": "bufferViewScalar" },
    {
      "buffer": 0,
      "byteOffset": 263376,
      "byteLength": 1580256,
      "byteStride": 12,
      "name": "bufferViewFloatVec3"
    },
    {
      "buffer": 0,
      "byteOffset": 1843632,
      "byteLength": 526752,
      "byteStride": 8,
      "name": "bufferViewFloatVec2"
    }
  ],
  "buffers": [{ "uri": "no-shadow.bin", "byteLength": 2370384 }],
  "materials": [
    {
      "pbrMetallicRoughness": {
        "baseColorFactor": [1.0, 1.0, 1.0, 1.0],
        "baseColorTexture": { "index": 0, "texCoord": 0 },
        "metallicFactor": 0.0,
        "roughnessFactor": 0.450053632
      },
      "emissiveFactor": [0.0, 0.0, 0.0],
      "alphaMode": "BLEND",
      "name": "25_01wd2"
    },
    {
      "pbrMetallicRoughness": {
        "baseColorFactor": [0.0509803966, 0.0235294141, 0.0137254912, 1.0],
        "metallicFactor": 0.0,
        "roughnessFactor": 0.450053632
      },
      "emissiveFactor": [0.0, 0.0, 0.0],
      "alphaMode": "BLEND",
      "name": "25_01brown"
    },
    {
      "pbrMetallicRoughness": {
        "baseColorFactor": [0.294117659, 0.294117659, 0.294117659, 1.0],
        "metallicFactor": 0.0,
        "roughnessFactor": 0.450053632
      },
      "emissiveFactor": [0.0, 0.0, 0.0],
      "alphaMode": "BLEND",
      "name": "25_01gray2"
    },
    {
      "pbrMetallicRoughness": {
        "baseColorFactor": [1.0, 1.0, 1.0, 1.0],
        "baseColorTexture": { "index": 1, "texCoord": 0 },
        "metallicFactor": 0.0,
        "roughnessFactor": 0.450053632
      },
      "emissiveFactor": [0.0, 0.0, 0.0],
      "alphaMode": "BLEND",
      "name": "25_01wd"
    },
    {
      "pbrMetallicRoughness": {
        "baseColorFactor": [0.5, 0.5, 0.5, 1.0],
        "metallicFactor": 0.0,
        "roughnessFactor": 0.450053632
      },
      "emissiveFactor": [0.0, 0.0, 0.0],
      "alphaMode": "BLEND",
      "name": "25_01white"
    },
    {
      "pbrMetallicRoughness": {
        "baseColorFactor": [0.009803922, 0.009803922, 0.009803922, 1.0],
        "metallicFactor": 0.0,
        "roughnessFactor": 0.450053632
      },
      "emissiveFactor": [0.0, 0.0, 0.0],
      "alphaMode": "BLEND",
      "name": "25_01black"
    },
    {
      "pbrMetallicRoughness": {
        "baseColorFactor": [0.0588235334, 0.0588235334, 0.0588235334, 1.0],
        "metallicFactor": 0.0,
        "roughnessFactor": 0.450053632
      },
      "emissiveFactor": [0.0, 0.0, 0.0],
      "alphaMode": "BLEND",
      "name": "25_01gray"
    },
    {
      "pbrMetallicRoughness": {
        "baseColorFactor": [1.0, 1.0, 1.0, 1.0],
        "baseColorTexture": { "index": 2, "texCoord": 0 },
        "metallicFactor": 0.0,
        "roughnessFactor": 0.450053632
      },
      "emissiveFactor": [0.0, 0.0, 0.0],
      "alphaMode": "MASK",
      "name": "25_01ta"
    }
  ],
  "textures": [
    { "sampler": 0, "source": 0, "name": "25_01wd2_baseColor.png" },
    { "sampler": 0, "source": 1, "name": "25_01wd_baseColor.png" },
    { "sampler": 0, "source": 2, "name": "25_01ta_baseColor.png" }
  ],
  "images": [
    { "uri": "./texture/25_01wd2_baseColor.png" },
    { "uri": "./texture/25_01wd_baseColor.png" },
    { "uri": "./texture/25_01ta_baseColor.png" }
  ],
  "samplers": [
    { "magFilter": 9729, "minFilter": 9987, "wrapS": 10497, "wrapT": 10497 }
  ]
}
